x[(0,0,0)] = 0
x[(0,0,1)] = 1
x[(0,0,2)] = 2
x[(0,0,3)] = 3
x[(0,0,4)] = 4
x[(0,1,0)] = 10
x[(0,1,1)] = 11
x[(0,1,2)] = 12
x[(0,1,3)] = 13
x[(0,1,4)] = 14
x[(0,2,0)] = 20
x[(0,2,1)] = 21
x[(0,2,2)] = 22
x[(0,2,3)] = 23
x[(0,2,4)] = 24
x[(0,3,0)] = 30
x[(0,3,1)] = 31
x[(0,3,2)] = 32
x[(0,3,3)] = 33
x[(0,3,4)] = 34
x[(1,0,0)] = 100
x[(1,0,1)] = 101
x[(1,0,2)] = 102
x[(1,0,3)] = 103
x[(1,0,4)] = 104
x[(1,1,0)] = 110
x[(1,1,1)] = 111
x[(1,1,2)] = 112
x[(1,1,3)] = 113
x[(1,1,4)] = 114
x[(1,2,0)] = 120
x[(1,2,1)] = 121
x[(1,2,2)] = 122
x[(1,2,3)] = 123
x[(1,2,4)] = 124
x[(1,3,0)] = 130
x[(1,3,1)] = 131
x[(1,3,2)] = 132
x[(1,3,3)] = 133
x[(1,3,4)] = 134
x[(2,0,0)] = 200
x[(2,0,1)] = 201
x[(2,0,2)] = 202
x[(2,0,3)] = 203
x[(2,0,4)] = 204
x[(2,1,0)] = 210
x[(2,1,1)] = 211
x[(2,1,2)] = 212
x[(2,1,3)] = 213
x[(2,1,4)] = 214
x[(2,2,0)] = 220
x[(2,2,1)] = 221
x[(2,2,2)] = 222
x[(2,2,3)] = 223
x[(2,2,4)] = 224
x[(2,3,0)] = 230
x[(2,3,1)] = 231
x[(2,3,2)] = 232
x[(2,3,3)] = 233
x[(2,3,4)] = 234
y[(0,0,0)] = 0
y[(0,0,1)] = 100
y[(0,0,2)] = 200
y[(0,1,0)] = 10
y[(0,1,1)] = 110
y[(0,1,2)] = 210
y[(0,2,0)] = 20
y[(0,2,1)] = 120
y[(0,2,2)] = 220
y[(0,3,0)] = 30
y[(0,3,1)] = 130
y[(0,3,2)] = 230
y[(1,0,0)] = 1
y[(1,0,1)] = 101
y[(1,0,2)] = 201
y[(1,1,0)] = 11
y[(1,1,1)] = 111
y[(1,1,2)] = 211
y[(1,2,0)] = 21
y[(1,2,1)] = 121
y[(1,2,2)] = 221
y[(1,3,0)] = 31
y[(1,3,1)] = 131
y[(1,3,2)] = 231
y[(2,0,0)] = 2
y[(2,0,1)] = 102
y[(2,0,2)] = 202
y[(2,1,0)] = 12
y[(2,1,1)] = 112
y[(2,1,2)] = 212
y[(2,2,0)] = 22
y[(2,2,1)] = 122
y[(2,2,2)] = 222
y[(2,3,0)] = 32
y[(2,3,1)] = 132
y[(2,3,2)] = 232
y[(3,0,0)] = 3
y[(3,0,1)] = 103
y[(3,0,2)] = 203
y[(3,1,0)] = 13
y[(3,1,1)] = 113
y[(3,1,2)] = 213
y[(3,2,0)] = 23
y[(3,2,1)] = 123
y[(3,2,2)] = 223
y[(3,3,0)] = 33
y[(3,3,1)] = 133
y[(3,3,2)] = 233
y[(4,0,0)] = 4
y[(4,0,1)] = 104
y[(4,0,2)] = 204
y[(4,1,0)] = 14
y[(4,1,1)] = 114
y[(4,1,2)] = 214
y[(4,2,0)] = 24
y[(4,2,1)] = 124
y[(4,2,2)] = 224
y[(4,3,0)] = 34
y[(4,3,1)] = 134
y[(4,3,2)] = 234
z[(0,0,0)] = 0
z[(0,0,1)] = 1
z[(0,0,2)] = 2
z[(0,0,3)] = 3
z[(0,0,4)] = 4
z[(0,1,0)] = 100
z[(0,1,1)] = 101
z[(0,1,2)] = 102
z[(0,1,3)] = 103
z[(0,1,4)] = 104
z[(0,2,0)] = 200
z[(0,2,1)] = 201
z[(0,2,2)] = 202
z[(0,2,3)] = 203
z[(0,2,4)] = 204
z[(1,0,0)] = 10
z[(1,0,1)] = 11
z[(1,0,2)] = 12
z[(1,0,3)] = 13
z[(1,0,4)] = 14
z[(1,1,0)] = 110
z[(1,1,1)] = 111
z[(1,1,2)] = 112
z[(1,1,3)] = 113
z[(1,1,4)] = 114
z[(1,2,0)] = 210
z[(1,2,1)] = 211
z[(1,2,2)] = 212
z[(1,2,3)] = 213
z[(1,2,4)] = 214
z[(2,0,0)] = 20
z[(2,0,1)] = 21
z[(2,0,2)] = 22
z[(2,0,3)] = 23
z[(2,0,4)] = 24
z[(2,1,0)] = 120
z[(2,1,1)] = 121
z[(2,1,2)] = 122
z[(2,1,3)] = 123
z[(2,1,4)] = 124
z[(2,2,0)] = 220
z[(2,2,1)] = 221
z[(2,2,2)] = 222
z[(2,2,3)] = 223
z[(2,2,4)] = 224
z[(3,0,0)] = 30
z[(3,0,1)] = 31
z[(3,0,2)] = 32
z[(3,0,3)] = 33
z[(3,0,4)] = 34
z[(3,1,0)] = 130
z[(3,1,1)] = 131
z[(3,1,2)] = 132
z[(3,1,3)] = 133
z[(3,1,4)] = 134
z[(3,2,0)] = 230
z[(3,2,1)] = 231
z[(3,2,2)] = 232
z[(3,2,3)] = 233
z[(3,2,4)] = 234
w[(0,0,0)] = 0
w[(0,0,1)] = 100
w[(0,0,2)] = 200
w[(0,1,0)] = 1
w[(0,1,1)] = 101
w[(0,1,2)] = 201
w[(0,2,0)] = 2
w[(0,2,1)] = 102
w[(0,2,2)] = 202
w[(0,3,0)] = 3
w[(0,3,1)] = 103
w[(0,3,2)] = 203
w[(0,4,0)] = 4
w[(0,4,1)] = 104
w[(0,4,2)] = 204
w[(1,0,0)] = 10
w[(1,0,1)] = 110
w[(1,0,2)] = 210
w[(1,1,0)] = 11
w[(1,1,1)] = 111
w[(1,1,2)] = 211
w[(1,2,0)] = 12
w[(1,2,1)] = 112
w[(1,2,2)] = 212
w[(1,3,0)] = 13
w[(1,3,1)] = 113
w[(1,3,2)] = 213
w[(1,4,0)] = 14
w[(1,4,1)] = 114
w[(1,4,2)] = 214
w[(2,0,0)] = 20
w[(2,0,1)] = 120
w[(2,0,2)] = 220
w[(2,1,0)] = 21
w[(2,1,1)] = 121
w[(2,1,2)] = 221
w[(2,2,0)] = 22
w[(2,2,1)] = 122
w[(2,2,2)] = 222
w[(2,3,0)] = 23
w[(2,3,1)] = 123
w[(2,3,2)] = 223
w[(2,4,0)] = 24
w[(2,4,1)] = 124
w[(2,4,2)] = 224
w[(3,0,0)] = 30
w[(3,0,1)] = 130
w[(3,0,2)] = 230
w[(3,1,0)] = 31
w[(3,1,1)] = 131
w[(3,1,2)] = 231
w[(3,2,0)] = 32
w[(3,2,1)] = 132
w[(3,2,2)] = 232
w[(3,3,0)] = 33
w[(3,3,1)] = 133
w[(3,3,2)] = 233
w[(3,4,0)] = 34
w[(3,4,1)] = 134
w[(3,4,2)] = 234
